Introduction to R for the Python User
…
---

# How do I read data?

```r
infant_hiv
## # A tibble: 1,728 × 5
##    country  year estimate    hi    lo
##    <chr>   <dbl>    <dbl> <dbl> <dbl>
##  1 AFG      2009       NA    NA    NA
##  2 AFG      2010       NA    NA    NA
##  3 AFG      2011       NA    NA    NA
##  4 AFG      2012       NA    NA    NA
##  5 AFG      2013       NA    NA    NA
##  6 AFG      2014       NA    NA    NA
##  7 AFG      2015       NA    NA    NA
##  8 AFG      2016       NA    NA    NA
##  9 AFG      2017       NA    NA    NA
## 10 AGO      2009       NA    NA    NA
## # … with 1,718 more rows
```
…
]

.pull-right[

```r
infant_hiv['estimate']
## # A tibble: 1,728 × 1
##    estimate
##       <dbl>
##  1       NA
##  2       NA
##  3       NA
##  4       NA
##  5       NA
##  6       NA
##  7       NA
##  8       NA
##  9       NA
## 10       NA
## # … with 1,718 more rows
```
…
```python
print(infant_hiv.iloc[:, 0][0])
## AFG
```

]

.pull-right[

```r
infant_hiv[1]
## # A tibble: 1,728 × 1
##    country
##    <chr>  
##  1 AFG    
##  2 AFG    
##  3 AFG    
##  4 AFG    
##  5 AFG    
##  6 AFG    
##  7 AFG    
##  8 AFG    
##  9 AFG    
## 10 AGO    
## # … with 1,718 more rows
```
…
- `filter`: choose observations (rows) by value(s)
- `arrange`: reorder rows
- `select`: choose variables (columns) by name
- `mutate`: derive new variables from existing ones
- `group_by`: define subsets of rows for further processing
- `summarize`: combine many values to create a single new value

---

# A tidy filter

```r
filter(infant_hiv, lo > 0.5)
## # A tibble: 183 × 5
##    country  year estimate    hi    lo
##    <chr>   <dbl>    <dbl> <dbl> <dbl>
##  1 ARG      2016     0.67  0.77  0.61
##  2 ARG      2017     0.66  0.77  0.6 
##  3 AZE      2014     0.74  0.95  0.53
##  4 AZE      2015     0.83  0.95  0.64
##  5 AZE      2016     0.75  0.95  0.56
##  6 AZE      2017     0.74  0.95  0.56
##  7 BLR      2009     0.95  0.95  0.95
##  8 BLR      2010     0.95  0.95  0.95
##  9 BLR      2011     0.95  0.95  0.91
## 10 BLR      2012     0.95  0.95  0.95
## # … with 173 more rows
```

---

# Incorporate the pipe

```r
infant_hiv %>% filter(lo > 0.5)
## # A tibble: 183 × 5
##    country  year estimate    hi    lo
##    <chr>   <dbl>    <dbl> <dbl> <dbl>
##  1 ARG      2016     0.67  0.77  0.61
##  2 ARG      2017     0.66  0.77  0.6 
##  3 AZE      2014     0.74  0.95  0.53
##  4 AZE      2015     0.83  0.95  0.64
##  5 AZE      2016     0.75  0.95  0.56
##  6 AZE      2017     0.74  0.95  0.56
##  7 BLR      2009     0.95  0.95  0.95
##  8 BLR      2010     0.95  0.95  0.95
##  9 BLR      2011     0.95  0.95  0.91
## 10 BLR      2012     0.95  0.95  0.95
## # … with 173 more rows
```
…
---

# Incorporate the pipe

```r
infant_hiv %>%
  filter(estimate != 0.95) %>%
  filter(lo > 0.5) %>%
  filter(hi <= (lo + 0.2)) %>%
  arrange(desc(lo))
## # A tibble: 55 × 5
##    country  year estimate    hi    lo
##    <chr>   <dbl>    <dbl> <dbl> <dbl>
##  1 TTO      2017     0.94  0.95  0.86
##  2 SWZ      2011     0.93  0.95  0.84
##  3 CUB      2014     0.92  0.95  0.83
##  4 TTO      2016     0.9   0.95  0.83
##  5 CRI      2009     0.92  0.95  0.81
##  6 CRI      2012     0.89  0.95  0.81
##  7 NAM      2014     0.91  0.95  0.81
##  8 URY      2016     0.9   0.95  0.81
##  9 ZMB      2014     0.91  0.95  0.81
## 10 KAZ      2015     0.84  0.95  0.8 
## # … with 45 more rows
```

---

# Selecting columns

```r
infant_hiv %>%
  filter(estimate != 0.95) %>%
  filter(lo > 0.5) %>%
  filter(hi <= (lo + 0.2)) %>%
  arrange(desc(lo)) %>%
  select(year, lo, hi)
## # A tibble: 55 × 3
##     year    lo    hi
##    <dbl> <dbl> <dbl>
##  1  2017  0.86  0.95
##  2  2011  0.84  0.95
##  3  2014  0.83  0.95
##  4  2016  0.83  0.95
##  5  2009  0.81  0.95
##  6  2012  0.81  0.95
##  7  2014  0.81  0.95
##  8  2016  0.81  0.95
##  9  2014  0.81  0.95
## 10  2015  0.8   0.95
## # … with 45 more rows
```

---

# Selecting columns

```r
infant_hiv %>%
  filter(estimate != 0.95) %>%
  filter(lo > 0.5) %>%
  filter(hi <= (lo + 0.2)) %>%
  arrange(desc(lo)) %>%
  select(-country, -estimate)
## # A tibble: 55 × 3
##     year    hi    lo
##    <dbl> <dbl> <dbl>
##  1  2017  0.95  0.86
##  2  2011  0.95  0.84
##  3  2014  0.95  0.83
##  4  2016  0.95  0.83
##  5  2009  0.95  0.81
##  6  2012  0.95  0.81
##  7  2014  0.95  0.81
##  8  2016  0.95  0.81
##  9  2014  0.95  0.81
## 10  2015  0.95  0.8 
## # … with 45 more rows
```

---

# Creating new columns

```r
infant_hiv %>%
  filter(estimate != 0.95) %>%
  filter(lo > 0.5) %>%
  filter(hi <= (lo + 0.2)) %>%
  arrange(desc(lo)) %>%
  select(-country, -estimate) %>%
  mutate(difference = hi - lo)
## # A tibble: 55 × 4
##     year    hi    lo difference
##    <dbl> <dbl> <dbl>      <dbl>
##  1  2017  0.95  0.86      0.09 
##  2  2011  0.95  0.84      0.11 
##  3  2014  0.95  0.83      0.12 
##  4  2016  0.95  0.83      0.12 
##  5  2009  0.95  0.81      0.140
##  6  2012  0.95  0.81      0.140
##  7  2014  0.95  0.81      0.140
##  8  2016  0.95  0.81      0.140
##  9  2014  0.95  0.81      0.140
## 10  2015  0.95  0.8       0.150
## # … with 45 more rows
```
…
---

count: false

.panel1-plot-after-drop-auto[

```r
*infant_hiv
```
]
 
.panel2-plot-after-drop-auto[

```
## # A tibble: 1,728 × 5
##    country  year estimate    hi    lo
##    <chr>   <dbl>    <dbl> <dbl> <dbl>
##  1 AFG      2009       NA    NA    NA
##  2 AFG      2010       NA    NA    NA
##  3 AFG      2011       NA    NA    NA
##  4 AFG      2012       NA    NA    NA
##  5 AFG      2013       NA    NA    NA
##  6 AFG      2014       NA    NA    NA
##  7 AFG      2015       NA    NA    NA
##  8 AFG      2016       NA    NA    NA
##  9 AFG      2017       NA    NA    NA
## 10 AGO      2009       NA    NA    NA
## # … with 1,718 more rows
```
…
---
count: false

.panel1-plot-after-drop-auto[

```r
infant_hiv %>%
* drop_na()
```
]
 
.panel2-plot-after-drop-auto[

```
## # A tibble: 728 × 5
##    country  year estimate    hi    lo
##    <chr>   <dbl>    <dbl> <dbl> <dbl>
##  1 AGO      2010     0.03  0.04  0.02
##  2 AGO      2011     0.05  0.07  0.04
##  3 AGO      2012     0.06  0.08  0.05
##  4 AGO      2013     0.15  0.2   0.12
##  5 AGO      2014     0.1   0.14  0.08
##  6 AGO      2015     0.06  0.08  0.05
##  7 AGO      2016     0.01  0.02  0.01
##  8 AGO      2017     0.01  0.02  0.01
##  9 ARG      2011     0.13  0.14  0.11
## 10 ARG      2012     0.12  0.14  0.11
## # … with 718 more rows
```
…
count: false

.panel1-plot-remove-outliers-user[

```r
*infant_hiv %>%
* drop_na() %>%
* filter(hi != 0.95)
```
]
 
.panel2-plot-remove-outliers-user[

```
## # A tibble: 604 × 5
##    country  year estimate    hi    lo
##    <chr>   <dbl>    <dbl> <dbl> <dbl>
##  1 AGO      2010     0.03  0.04  0.02
##  2 AGO      2011     0.05  0.07  0.04
##  3 AGO      2012     0.06  0.08  0.05
##  4 AGO      2013     0.15  0.2   0.12
##  5 AGO      2014     0.1   0.14  0.08
##  6 AGO      2015     0.06  0.08  0.05
##  7 AGO      2016     0.01  0.02  0.01
##  8 AGO      2017     0.01  0.02  0.01
##  9 ARG      2011     0.13  0.14  0.11
## 10 ARG      2012     0.12  0.14  0.11
## # … with 594 more rows
```
…
.panel1-plot-remove-outliers-user[

```r
infant_hiv %>%
  drop_na() %>%
  filter(hi != 0.95) %>%
* filter(!((lo < 0.10) & (hi > 0.25)))
```
]
 
.panel2-plot-remove-outliers-user[

```
## # A tibble: 595 × 5
##    country  year estimate    hi    lo
##    <chr>   <dbl>    <dbl> <dbl> <dbl>
##  1 AGO      2010     0.03  0.04  0.02
##  2 AGO      2011     0.05  0.07  0.04
##  3 AGO      2012     0.06  0.08  0.05
##  4 AGO      2013     0.15  0.2   0.12
##  5 AGO      2014     0.1   0.14  0.08
##  6 AGO      2015     0.06  0.08  0.05
##  7 AGO      2016     0.01  0.02  0.01
##  8 AGO      2017     0.01  0.02  0.01
##  9 ARG      2011     0.13  0.14  0.11
## 10 ARG      2012     0.12  0.14  0.11
## # … with 585 more rows
```
…
